{
  "data": [
    {
      "current_page": 0,
      "products": [
        {
          "id": 20623,
          "title": "vivo Y93s ",
          "price": "1398.00",
          "img": "https://image.suhuishou.com/attached/image/20190615/20190615104859_71428.png",
          "goods_number": 1,
          "bonus_price": 150
        },
        {
          "id": 20610,
          "title": "vivo X27 8GB+256GB\u5927\u5185\u5b58 \u96f6\u754c\u5168\u9762\u5c4fAI\u4e09\u6444 \u79fb\u52a8\u8054\u901a\u7535\u4fe1\u5168\u7f51\u901a4G\u624b\u673a",
          "price": "3298.00",
          "img": "https://image.suhuishou.com/attached/image/20190615/20190615083946_47241.png",
          "goods_number": 1,
          "bonus_price": 500
        },
        {
          "id": 20614,
          "title": "\u5c0f\u7c73 \u7ea2\u7c737A 3+32GB \u5168\u7f51\u901a4G \u78e8\u7802\u9ed1",
          "price": "799.00",
          "img": "https://image.suhuishou.com/attached/image/20190615/20190615094414_97141.png",
          "goods_number": 1,
          "bonus_price": 50
        },
        {
          "id": 20631,
          "title": "\u5c0f\u7c739 4800\u4e07\u8d85\u5e7f\u89d2\u4e09\u6444 8GB+128GB \u9a81\u9f99855 \u5168\u7f51\u901a4G \u53cc\u5361\u53cc\u5f85 \u6c34\u6ef4\u5168\u9762\u5c4f\u62cd\u7167\u6e38\u620f\u667a\u80fd\u624b\u673a",
          "price": "3299.00",
          "img": "https://image.suhuishou.com/attached/image/20190615/20190615155411_44423.jpg",
          "goods_number": 1,
          "bonus_price": 260
        },
        {
          "id": 20588,
          "title": "OPPO A9 \u5168\u9762\u5c4f\u62cd\u7167\u624b\u673a 6GB+128GB \u5168\u7f51\u901a \u79fb\u52a8\u8054\u901a\u7535\u4fe14G \u53cc\u5361\u53cc\u5f85\u624b\u673a",
          "price": "1699.00",
          "img": "https://image.suhuishou.com/attached/image/20190611/20190611154025_25847.png",
          "goods_number": 1,
          "bonus_price": 226
        },
        {
          "id": 20595,
          "title": "OPPO Reno(6G+256G) \u5168\u9762\u5c4f\u62cd\u7167\u624b\u673a \u5168\u7f51\u901a\u53cc\u5361\u53cc\u5f85 ",
          "price": "2799.00",
          "img": "https://image.suhuishou.com/attached/image/20190612/20190612141646_20975.png",
          "goods_number": 1,
          "bonus_price": 350
        },
        {
          "id": 20609,
          "title": "OPPO Reno Z 4800\u4e07\u8d85\u6e05\u50cf\u7d20 \u8d85\u6e05\u591c\u666f2.0 \u5168\u7f51\u901a",
          "price": "2299.00",
          "img": "https://image.suhuishou.com/attached/image/20190614/20190614134406_94073.png",
          "goods_number": 1,
          "bonus_price": 350
        },
        {
          "id": 20611,
          "title": "vivo X27 8GB+128GB\u5927\u5185\u5b58 \u96f6\u754c\u5168\u9762\u5c4fAI\u4e09\u6444 \u79fb\u52a8\u8054\u901a\u7535\u4fe1\u5168\u7f51\u901a4G\u624b\u673a",
          "price": "2998.00",
          "img": "https://image.suhuishou.com/attached/image/20190615/20190615085002_35398.png",
          "goods_number": 1,
          "bonus_price": 400
        }
      ],
      "laptop": [
        {
          "id": 20869,
          "title": "\u60e0\u666e\uff08HP\uff09 \u5e7d\u7075Spectre X360 13\u7ffb\u8f6c\u89e6\u63a7\u8f7b\u8584\u7b14\u8bb0\u672c\u7535\u811113.3\u82f1\u5bf8\u3010\u4e09\u5e74\u4e0a\u95e8\u4fdd\u4fee\u3011 \u6807\u914d\u3010\u9ed1\u91d1\u9001\u7b14i5-8265u/8G/256G PCIE\u56fa\u6001\u3011FHD\u89e6\u63a7\u5c4f \u6307\u7eb9\u89e3\u9501 ",
          "price": "9299.00",
          "img": "https://image.suhuishou.com/attached/image/20190719/20190719171518_37541.png",
          "goods_number": 1,
          "bonus_price": 300
        },
        {
          "id": 20868,
          "title": "\u6234\u5c14DELLXPS13.3\u82f1\u5bf8\u82f1\u7279\u5c14\u9177\u777fi5\u8d85\u8f7b\u8584\u7a84\u8fb9\u6846\u7b14\u8bb0\u672c\u7535\u8111(i5-8250U 8G 256GPCIe IPS 72%\u9ad8\u8272\u57df \u80cc\u5149)\u94f6",
          "price": "7699.00",
          "img": "https://image.suhuishou.com/attached/image/20190719/20190719164039_80055.png",
          "goods_number": 1,
          "bonus_price": 50
        },
        {
          "id": 20706,
          "title": "\u534e\u7855(ASUS) \u7075\u8000S 2\u4ee3 30\u5468\u5e74\u7cbe\u9009\u673a\u578b 15.6\u82f1\u5bf8\u8f7b\u8584\u7b14\u8bb0\u672c\u7535\u8111(i5-8265U 8G 512GSSD MX150 IPS)\u7070(S5300) ",
          "price": "5399.00",
          "img": "https://image.suhuishou.com/attached/image/20190622/20190622162048_95425.png",
          "goods_number": 1,
          "bonus_price": 500
        },
        {
          "id": 20703,
          "title": "\u534e\u7855\uff08ASUS\uff09 A555QG 15.6\u82f1\u5bf8\u5546\u52a1\u529e\u516c\u672c\u5b66\u751f\u5a31\u4e50\u6e38\u620f\u624b\u63d0\u7b14\u8bb0\u672c\u7535\u8111 \u9ed1\u82723M\u739b\u96c5\u7eb9 A12-9700P/4GB/\u72ec\u663e/256G SSD ",
          "price": "4599.00",
          "img": "https://image.suhuishou.com/attached/image/20190622/20190622160426_87499.png",
          "goods_number": 1,
          "bonus_price": 399
        },
        {
          "id": 20702,
          "title": "\u534e\u7855\uff08ASUS\uff09\u987d\u77f3Y5100UB\u8f7b\u8584\u4fbf\u643a15.6\u82f1\u5bf8\u5b66\u751f\u5546\u52a1\u529e\u516c\u5a31\u4e50\u7b14\u8bb0\u672c\u624b\u63d0\u9ad8\u6e05\u5c4f\u7535\u8111 \u51b0\u6676\u94f6i5-8250U/MX110 \u5b98\u914d4G/1T\u673a\u68b0",
          "price": "4599.00",
          "img": "https://image.suhuishou.com/attached/image/20190622/20190622154400_25542.png",
          "goods_number": 1,
          "bonus_price": 350
        },
        {
          "id": 20698,
          "title": "\u534e\u7855\uff08ASUS\uff09\u987d\u77f3Y406UA\u8d85\u8584\u7b14\u8bb0\u672c\u7535\u811114\u82f1\u5bf8i5\u56db\u9762\u7a84\u8fb9\u6846\u8d85\u8f7b\u8584\u7b14\u8bb0\u672c\u7535\u8111IPS\u5c4f i5-8250U/8G/256G ",
          "price": "4799.00",
          "img": "https://image.suhuishou.com/attached/image/20190622/20190622144504_39132.png",
          "goods_number": 1,
          "bonus_price": 399
        },
        {
          "id": 20683,
          "title": "\u534e\u7855\uff08ASUS\uff09 S2\u4ee3S4300 14\u82f1\u5bf8\u4fbf\u643a\u5546\u52a1\u529e\u516c\u7b14\u8bb0\u672c\u7535\u8111 \u7070\u8272 i7-8550U/8G\u5185\u5b58 1T+256G\u56fa\u6001 ",
          "price": "5699.00",
          "img": "https://image.suhuishou.com/attached/image/20190621/20190621171924_32693.png",
          "goods_number": 1,
          "bonus_price": 600
        },
        {
          "id": 20682,
          "title": "\u534e\u7855\u987d\u77f3(ASUS) \u7545\u73a9\u7248Y4000 14.0\u82f1\u5bf8\u7a84\u8fb9\u6846\u7b14\u8bb0\u672c\u7535\u8111(\u9177\u777fi3 4G 128GSSD+500G MX110 2G\u72ec\u663e)\u91d1\u8272",
          "price": "3499.00",
          "img": "https://image.suhuishou.com/attached/image/20190621/20190621155718_12668.png",
          "goods_number": 1,
          "bonus_price": 300
        }
      ],
      "banners": [
        {
          "id": 227,
          "name": "\u4ee5\u65e7\u6362\u65b0banner1-pc",
          "code": "https://image.suhuishou.com/attached/image/20190617/20190617165340_92178.jpg",
          "link": "",
          "appid": ""
        },
        {
          "id": 228,
          "name": "banner2-pc",
          "code": "https://image.suhuishou.com/attached/image/20190617/20190617172850_82548.jpg",
          "link": "https://activity.suhuishou.com/repcoldnew",
          "appid": ""
        }
      ],
      "mobilebanners": [
        {
          "id": 226,
          "name": "\u4ee5\u65e7\u6362\u65b0banner1",
          "code": "https://image.suhuishou.com/attached/image/20190617/20190617165236_86188.jpg",
          "link": "",
          "appid": ""
        },
        {
          "id": 230,
          "name": "banner2-wap",
          "code": "https://image.suhuishou.com/attached/image/20190617/20190617173725_74676.jpg",
          "link": "https://activity.suhuishou.com/reoldnew",
          "appid": ""
        }
      ]
    },
    {
      "current_page": 1,
      "data": [
        {
          "id": 20623,
          "title": "vivo Y93s ",
          "price": "1398.00",
          "img": "https://image.suhuishou.com/attached/image/20190615/20190615104859_71428.png",
          "goods_number": 1,
          "bonus_price": 150
        },
        {
          "id": 20610,
          "title": "vivo X27 8GB+256GB\u5927\u5185\u5b58 \u96f6\u754c\u5168\u9762\u5c4fAI\u4e09\u6444 \u79fb\u52a8\u8054\u901a\u7535\u4fe1\u5168\u7f51\u901a4G\u624b\u673a",
          "price": "3298.00",
          "img": "https://image.suhuishou.com/attached/image/20190615/20190615083946_47241.png",
          "goods_number": 1,
          "bonus_price": 500
        },
        {
          "id": 20614,
          "title": "\u5c0f\u7c73 \u7ea2\u7c737A 3+32GB \u5168\u7f51\u901a4G \u78e8\u7802\u9ed1",
          "price": "799.00",
          "img": "https://image.suhuishou.com/attached/image/20190615/20190615094414_97141.png",
          "goods_number": 1,
          "bonus_price": 50
        },
        {
          "id": 20631,
          "title": "\u5c0f\u7c739 4800\u4e07\u8d85\u5e7f\u89d2\u4e09\u6444 8GB+128GB \u9a81\u9f99855 \u5168\u7f51\u901a4G \u53cc\u5361\u53cc\u5f85 \u6c34\u6ef4\u5168\u9762\u5c4f\u62cd\u7167\u6e38\u620f\u667a\u80fd\u624b\u673a",
          "price": "3299.00",
          "img": "https://image.suhuishou.com/attached/image/20190615/20190615155411_44423.jpg",
          "goods_number": 1,
          "bonus_price": 260
        },
        {
          "id": 20588,
          "title": "OPPO A9 \u5168\u9762\u5c4f\u62cd\u7167\u624b\u673a 6GB+128GB \u5168\u7f51\u901a \u79fb\u52a8\u8054\u901a\u7535\u4fe14G \u53cc\u5361\u53cc\u5f85\u624b\u673a",
          "price": "1699.00",
          "img": "https://image.suhuishou.com/attached/image/20190611/20190611154025_25847.png",
          "goods_number": 1,
          "bonus_price": 226
        },
        {
          "id": 20595,
          "title": "OPPO Reno(6G+256G) \u5168\u9762\u5c4f\u62cd\u7167\u624b\u673a \u5168\u7f51\u901a\u53cc\u5361\u53cc\u5f85 ",
          "price": "2799.00",
          "img": "https://image.suhuishou.com/attached/image/20190612/20190612141646_20975.png",
          "goods_number": 1,
          "bonus_price": 350
        },
        {
          "id": 20609,
          "title": "OPPO Reno Z 4800\u4e07\u8d85\u6e05\u50cf\u7d20 \u8d85\u6e05\u591c\u666f2.0 \u5168\u7f51\u901a",
          "price": "2299.00",
          "img": "https://image.suhuishou.com/attached/image/20190614/20190614134406_94073.png",
          "goods_number": 1,
          "bonus_price": 350
        },
        {
          "id": 20611,
          "title": "vivo X27 8GB+128GB\u5927\u5185\u5b58 \u96f6\u754c\u5168\u9762\u5c4fAI\u4e09\u6444 \u79fb\u52a8\u8054\u901a\u7535\u4fe1\u5168\u7f51\u901a4G\u624b\u673a",
          "price": "2998.00",
          "img": "https://image.suhuishou.com/attached/image/20190615/20190615085002_35398.png",
          "goods_number": 1,
          "bonus_price": 400
        },
        {
          "id": 20615,
          "title": "vivo S1 6GB+128GB  2480\u4e07AI\u9ad8\u6e05\u81ea\u62cd \u8d85\u5e7f\u89d2\u540e\u7f6e\u4e09\u6444\u62cd\u7167\u624b\u673a \u79fb\u52a8\u8054\u901a\u7535\u4fe1\u5168\u7f51\u901a4G\u624b\u673a",
          "price": "1998.00",
          "img": "https://image.suhuishou.com/attached/image/20190615/20190615100810_96143.png",
          "goods_number": 1,
          "bonus_price": 250
        },
        {
          "id": 20616,
          "title": "vivo S1 6GB+256GB  2480\u4e07AI\u9ad8\u6e05\u81ea\u62cd \u8d85\u5e7f\u89d2\u540e\u7f6e\u4e09\u6444\u62cd\u7167\u624b\u673a \u79fb\u52a8\u8054\u901a\u7535\u4fe1\u5168\u7f51\u901a4G\u624b\u673a",
          "price": "2298.00",
          "img": "https://image.suhuishou.com/attached/image/20190615/20190615101613_87676.png",
          "goods_number": 1,
          "bonus_price": 300
        }
      ],
      "first_page_url": "https://www.suhuishou.com/product/hxlist?page=1",
      "from": 1,
      "last_page": 3,
      "last_page_url": "https://www.suhuishou.com/product/hxlist?page=3",
      "next_page_url": "https://www.suhuishou.com/product/hxlist?page=2",
      "path": "https://www.suhuishou.com/product/hxlist",
      "per_page": 10,
      "prev_page_url": null,
      "to": 10,
      "total": 29
    },
    {
      "current_page": 2,
      "data": [
        {
          "id": 20618,
          "title": "vivo X27Pro 8GB+256GB\u5927\u5185\u5b58 \u9ed1\u73cd\u73e0 4800\u4e07AI\u4e09\u6444\u5168\u9762\u5c4f\u62cd\u7167\u624b\u673a \u79fb\u52a8\u8054\u901a\u7535\u4fe1\u5168\u7f51\u901a4G\u624b\u673a",
          "price": "3998.00",
          "img": "https://image.suhuishou.com/attached/image/20190615/20190615102025_38914.png",
          "goods_number": 1,
          "bonus_price": 500
        },
        {
          "id": 20621,
          "title": "vivo S1Pro 6GB+256GB  3200\u4e07AI\u9ad8\u6e05\u81ea\u62cd \u8d85\u5e7f\u89d2\u540e\u7f6e\u4e09\u6444\u62cd\u7167\u624b\u673a \u79fb\u52a8\u8054\u901a\u7535\u4fe1\u5168\u7f51\u901a4G\u624b\u673a",
          "price": "2698.00",
          "img": "https://image.suhuishou.com/attached/image/20190615/20190615103349_74927.png",
          "goods_number": 1,
          "bonus_price": 300
        },
        {
          "id": 20625,
          "title": "vivo Y3 4GB+128GB 5000mAh\u5927\u7535\u6c60 \u5f3a\u52b2\u7eed\u822a\u624b\u673a \u8d85\u5e7f\u89d2AI\u667a\u6167\u4e09\u6444 \u79fb\u52a8\u8054\u901a\u7535\u4fe1\u5168\u7f51\u901a4G\u624b\u673a",
          "price": "1498.00",
          "img": "https://image.suhuishou.com/attached/image/20190615/20190615110814_49570.png",
          "goods_number": 1,
          "bonus_price": 200
        },
        {
          "id": 20636,
          "title": "\u5c0f\u7c739 SE 4800\u4e07\u8d85\u5e7f\u89d2\u4e09\u6444 \u9a81\u9f99712 \u6c34\u6ef4\u5168\u9762\u5c4f \u6e38\u620f\u667a\u80fd\u62cd\u7167\u624b\u673a 6GB+128GB \u5168\u7f51\u901a4G\u53cc\u5361\u53cc\u5f85",
          "price": "2299.00",
          "img": "https://image.suhuishou.com/attached/image/20190615/20190615170317_67425.jpg",
          "goods_number": 1,
          "bonus_price": 150
        },
        {
          "id": 20637,
          "title": "\u5c0f\u7c73Play \u6d41\u5149\u6e10\u53d8AI\u53cc\u6444 6GB+64GB \u5168\u7f51\u901a4G \u53cc\u5361\u53cc\u5f85 \u5c0f\u6c34\u6ef4\u5168\u9762\u5c4f\u62cd\u7167\u6e38\u620f\u667a\u80fd\u624b\u673a",
          "price": "1299.00",
          "img": "https://image.suhuishou.com/attached/image/20190615/20190615182052_90713.jpg",
          "goods_number": 1,
          "bonus_price": 180
        },
        {
          "id": 20653,
          "title": "OPPO A9 \u5168\u9762\u5c4f\u62cd\u7167\u624b\u673a 4GB+128GB \u5168\u7f51\u901a \u79fb\u52a8\u8054\u901a\u7535\u4fe14G \u53cc\u5361\u53cc\u5f85\u624b\u673a",
          "price": "1399.00",
          "img": "https://image.suhuishou.com/attached/image/20190617/20190617160726_59969.png",
          "goods_number": 1,
          "bonus_price": 100
        },
        {
          "id": 20869,
          "title": "\u60e0\u666e\uff08HP\uff09 \u5e7d\u7075Spectre X360 13\u7ffb\u8f6c\u89e6\u63a7\u8f7b\u8584\u7b14\u8bb0\u672c\u7535\u811113.3\u82f1\u5bf8\u3010\u4e09\u5e74\u4e0a\u95e8\u4fdd\u4fee\u3011 \u6807\u914d\u3010\u9ed1\u91d1\u9001\u7b14i5-8265u/8G/256G PCIE\u56fa\u6001\u3011FHD\u89e6\u63a7\u5c4f \u6307\u7eb9\u89e3\u9501 ",
          "price": "9299.00",
          "img": "https://image.suhuishou.com/attached/image/20190719/20190719171518_37541.png",
          "goods_number": 1,
          "bonus_price": 300
        },
        {
          "id": 20868,
          "title": "\u6234\u5c14DELLXPS13.3\u82f1\u5bf8\u82f1\u7279\u5c14\u9177\u777fi5\u8d85\u8f7b\u8584\u7a84\u8fb9\u6846\u7b14\u8bb0\u672c\u7535\u8111(i5-8250U 8G 256GPCIe IPS 72%\u9ad8\u8272\u57df \u80cc\u5149)\u94f6",
          "price": "7699.00",
          "img": "https://image.suhuishou.com/attached/image/20190719/20190719164039_80055.png",
          "goods_number": 1,
          "bonus_price": 50
        },
        {
          "id": 20706,
          "title": "\u534e\u7855(ASUS) \u7075\u8000S 2\u4ee3 30\u5468\u5e74\u7cbe\u9009\u673a\u578b 15.6\u82f1\u5bf8\u8f7b\u8584\u7b14\u8bb0\u672c\u7535\u8111(i5-8265U 8G 512GSSD MX150 IPS)\u7070(S5300) ",
          "price": "5399.00",
          "img": "https://image.suhuishou.com/attached/image/20190622/20190622162048_95425.png",
          "goods_number": 1,
          "bonus_price": 500
        },
        {
          "id": 20613,
          "title": "\u5c0f\u7c73 \u7ea2\u7c737A 2+32GB \u5168\u7f51\u901a4G \u78e8\u7802\u9ed1",
          "price": "799.00",
          "img": "https://image.suhuishou.com/attached/image/20190615/20190615093909_94287.png",
          "goods_number": 1,
          "bonus_price": 50
        }
      ],
      "first_page_url": "https://new.suhuishou.com/api/v2/oldnew/products?page=1",
      "from": 11,
      "last_page": 3,
      "last_page_url": "https://new.suhuishou.com/api/v2/oldnew/products?page=3",
      "next_page_url": "https://new.suhuishou.com/api/v2/oldnew/products?page=3",
      "path": "https://new.suhuishou.com/api/v2/oldnew/products",
      "per_page": "10",
      "prev_page_url": "https://new.suhuishou.com/api/v2/oldnew/products?page=1",
      "to": 20,
      "total": 29
    },
    {
      "current_page": 3,
      "data": [
        {
          "id": 20612,
          "title": "\u5c0f\u7c73\uff08MI\uff09 \u7ea2\u7c735 \u624b\u673a \u6307\u7eb9\u89e3\u9501 \u5168\u7f51\u901a4G \u667a\u80fd\u624b\u673a7 \u79fb\u52a8\u8054\u901a\u7535\u4fe1 \u53cc\u5361\u53cc\u5f85 \u91d1\u8272 ",
          "price": "699.00",
          "img": "https://image.suhuishou.com/attached/image/20190615/20190615091104_24697.png",
          "goods_number": 1,
          "bonus_price": 90
        },
        {
          "id": 20632,
          "title": "\u5c0f\u7c73 \u7ea2\u7c73Redmi K20 4800\u4e07\u8d85\u5e7f\u89d2\u4e09\u6444 8GB+256GB \u5168\u7f51\u901a4G \u53cc\u5361\u53cc\u5f85 \u5168\u9762\u5c4f\u62cd\u7167\u6e38\u620f\u667a\u80fd\u624b\u673a",
          "price": "2599.00",
          "img": "https://image.suhuishou.com/attached/image/20190615/20190615135737_46224.jpg",
          "goods_number": 1,
          "bonus_price": 140
        },
        {
          "id": 20633,
          "title": "\u9ed1\u9ca8\u6e38\u620f\u624b\u673a2 8GB+128GB \u9a81\u9f99855 Magic Press\u7acb\u4f53\u64cd\u63a7 \u5854\u5f0f\u5168\u57df\u6db2\u51b7 \u5168\u9762\u5c4f \u5168\u7f51\u901a4G \u53cc\u5361\u53cc\u5f85",
          "price": "3199.00",
          "img": "https://image.suhuishou.com/attached/image/20190615/20190615151222_71792.jpg",
          "goods_number": 1,
          "bonus_price": 90
        },
        {
          "id": 20634,
          "title": "\u5c0f\u7c739 4800\u4e07\u8d85\u5e7f\u89d2\u4e09\u6444 8GB+256GB \u900f\u660e\u7248 \u9a81\u9f99855 \u5168\u7f51\u901a4G \u53cc\u5361\u53cc\u5f85 \u6c34\u6ef4\u5168\u9762\u5c4f\u62cd\u7167\u6e38\u620f\u667a\u80fd\u624b\u673a",
          "price": "3699.00",
          "img": "https://image.suhuishou.com/attached/image/20190615/20190615154842_93697.jpg",
          "goods_number": 10,
          "bonus_price": 300
        },
        {
          "id": 20703,
          "title": "\u534e\u7855\uff08ASUS\uff09 A555QG 15.6\u82f1\u5bf8\u5546\u52a1\u529e\u516c\u672c\u5b66\u751f\u5a31\u4e50\u6e38\u620f\u624b\u63d0\u7b14\u8bb0\u672c\u7535\u8111 \u9ed1\u82723M\u739b\u96c5\u7eb9 A12-9700P/4GB/\u72ec\u663e/256G SSD ",
          "price": "4599.00",
          "img": "https://image.suhuishou.com/attached/image/20190622/20190622160426_87499.png",
          "goods_number": 1,
          "bonus_price": 399
        },
        {
          "id": 20702,
          "title": "\u534e\u7855\uff08ASUS\uff09\u987d\u77f3Y5100UB\u8f7b\u8584\u4fbf\u643a15.6\u82f1\u5bf8\u5b66\u751f\u5546\u52a1\u529e\u516c\u5a31\u4e50\u7b14\u8bb0\u672c\u624b\u63d0\u9ad8\u6e05\u5c4f\u7535\u8111 \u51b0\u6676\u94f6i5-8250U/MX110 \u5b98\u914d4G/1T\u673a\u68b0",
          "price": "4599.00",
          "img": "https://image.suhuishou.com/attached/image/20190622/20190622154400_25542.png",
          "goods_number": 1,
          "bonus_price": 350
        },
        {
          "id": 20698,
          "title": "\u534e\u7855\uff08ASUS\uff09\u987d\u77f3Y406UA\u8d85\u8584\u7b14\u8bb0\u672c\u7535\u811114\u82f1\u5bf8i5\u56db\u9762\u7a84\u8fb9\u6846\u8d85\u8f7b\u8584\u7b14\u8bb0\u672c\u7535\u8111IPS\u5c4f i5-8250U/8G/256G ",
          "price": "4799.00",
          "img": "https://image.suhuishou.com/attached/image/20190622/20190622144504_39132.png",
          "goods_number": 1,
          "bonus_price": 399
        },
        {
          "id": 20683,
          "title": "\u534e\u7855\uff08ASUS\uff09 S2\u4ee3S4300 14\u82f1\u5bf8\u4fbf\u643a\u5546\u52a1\u529e\u516c\u7b14\u8bb0\u672c\u7535\u8111 \u7070\u8272 i7-8550U/8G\u5185\u5b58 1T+256G\u56fa\u6001 ",
          "price": "5699.00",
          "img": "https://image.suhuishou.com/attached/image/20190621/20190621171924_32693.png",
          "goods_number": 1,
          "bonus_price": 600
        },
        {
          "id": 20682,
          "title": "\u534e\u7855\u987d\u77f3(ASUS) \u7545\u73a9\u7248Y4000 14.0\u82f1\u5bf8\u7a84\u8fb9\u6846\u7b14\u8bb0\u672c\u7535\u8111(\u9177\u777fi3 4G 128GSSD+500G MX110 2G\u72ec\u663e)\u91d1\u8272",
          "price": "3499.00",
          "img": "https://image.suhuishou.com/attached/image/20190621/20190621155718_12668.png",
          "goods_number": 1,
          "bonus_price": 300
        }
      ],
      "first_page_url": "https://new.suhuishou.com/api/v2/oldnew/products?page=1",
      "from": 21,
      "last_page": 3,
      "last_page_url": "https://new.suhuishou.com/api/v2/oldnew/products?page=3",
      "next_page_url": null,
      "path": "https://new.suhuishou.com/api/v2/oldnew/products",
      "per_page": "10",
      "prev_page_url": "https://new.suhuishou.com/api/v2/oldnew/products?page=2",
      "to": 29,
      "total": 29
    },
    {
      "id": 20610,
      "title": "vivo X27 8GB+256GB\u5927\u5185\u5b58 \u96f6\u754c\u5168\u9762\u5c4fAI\u4e09\u6444 \u79fb\u52a8\u8054\u901a\u7535\u4fe1\u5168\u7f51\u901a4G\u624b\u673a",
      "ptitle": "",
      "price": 3298,
      "desc": "<table style=\"text-align:left;width:100%;\" cellpadding=\"0\" cellspacing=\"0\" border=\"0\" class=\"ke-zeroborder\" bordercolor=\"#000000\">\r\n\t<tbody>\r\n\t\t<tr>\r\n\t\t\t<td style=\"text-align:left;\">\r\n\t\t\t\t\u5206\u8fa8\u7387\uff1a2340*1080<br />\r\n\t\t\t</td>\r\n\t\t\t<td style=\"text-align:left;\">\r\n\t\t\t\t\u62cd\u7167\u7279\u70b9\uff1a\u667a\u80fd\u62cd\u7167\uff0c\u540e\u7f6e\u4e09\u6444<br />\r\n\t\t\t</td>\r\n\t\t</tr>\r\n\t\t<tr>\r\n\t\t\t<td style=\"text-align:left;\">\r\n\t\t\t\t\u540e\u7f6e\u6444\u50cf\u5934\uff1a1200\u4e07+1300\u4e07+500\u4e07\u50cf\u7d20<br />\r\n\t\t\t</td>\r\n\t\t\t<td style=\"text-align:left;\">\r\n\t\t\t\t\u70ed\u70b9\uff1a\u4eba\u5de5\u667a\u80fd\uff0c\u5c4f\u4e0b\u6307\u7eb9<br />\r\n\t\t\t</td>\r\n\t\t</tr>\r\n\t\t<tr>\r\n\t\t\t<td style=\"text-align:left;\">\r\n\t\t\t\t\u524d\u7f6e\u6444\u50cf\u5934\uff1a1600\u4e07\u50cf\u7d20<br />\r\n\t\t\t</td>\r\n\t\t\t<td style=\"text-align:left;\">\r\n\t\t\t\t\u7535\u6c60\u5bb9\u91cf\uff1a4000mAh-5999mAh<br />\r\n\t\t\t</td>\r\n\t\t</tr>\r\n\t\t<tr>\r\n\t\t\t<td style=\"text-align:left;\">\r\n\t\t\t\t\u6838\u00a0 \u00a0 \u00a0 \u6570\uff1a\u516b\u6838<br />\r\n\t\t\t</td>\r\n\t\t\t<td style=\"text-align:left;\">\r\n\t\t\t\t\u5c4f\u5e55\u914d\u7f6e\uff1a\u7b26\u5408\u5168\u9762\u5c4f\u6bd4\u4f8b<br />\r\n\t\t\t</td>\r\n\t\t</tr>\r\n\t\t<tr>\r\n\t\t\t<td style=\"text-align:left;\">\r\n\t\t\t\t\u9891\u00a0 \u00a0 \u00a0 \u7387\uff1a2.0GHz<br />\r\n\t\t\t</td>\r\n\t\t\t<td style=\"text-align:left;\">\r\n\t\t\t\t4G LTE\u7f51\u7edc\u7279\u6027\uff1a\u5176\u4ed6<br />\r\n\t\t\t</td>\r\n\t\t</tr>\r\n\t\t<tr>\r\n\t\t\t<td style=\"text-align:left;\">\r\n\t\t\t\t\u5546\u54c1\u6bdb\u91cd\uff1a0.59kg<br />\r\n\t\t\t</td>\r\n\t\t\t<td style=\"text-align:left;\">\r\n\t\t\t\t\u7cfb\u7edf\uff1a\u5b89\u5353\uff08Android\uff09<br />\r\n\t\t\t</td>\r\n\t\t</tr>\r\n\t</tbody>\r\n</table>\r\n<div style=\"text-align:left;\">\r\n\t<br />\r\n</div>\r\n<p style=\"text-align:center;\">\r\n\t<img src=\"https://image.suhuishou.com/attached/image/20190615/20190615084748_52673.jpg\" alt=\"\" /><img src=\"https://image.suhuishou.com/attached/image/20190615/20190615084749_40882.jpg\" alt=\"\" /><img src=\"https://image.suhuishou.com/attached/image/20190615/20190615084749_91926.jpg\" alt=\"\" /><img src=\"https://image.suhuishou.com/attached/image/20190615/20190615084749_75393.jpg\" alt=\"\" /><img src=\"https://image.suhuishou.com/attached/image/20190615/20190615084749_83537.jpg\" alt=\"\" /><img src=\"https://image.suhuishou.com/attached/image/20190615/20190615084749_33310.jpg\" alt=\"\" /><img src=\"https://image.suhuishou.com/attached/image/20190615/20190615084749_69709.jpg\" alt=\"\" /><img src=\"https://image.suhuishou.com/attached/image/20190615/20190615084749_53975.jpg\" alt=\"\" /><img src=\"https://image.suhuishou.com/attached/image/20190615/20190615084750_10674.jpg\" alt=\"\" /><img src=\"https://image.suhuishou.com/attached/image/20190615/20190615084750_17630.jpg\" alt=\"\" /><img src=\"https://image.suhuishou.com/attached/image/20190615/20190615084759_68864.jpg\" alt=\"\" /><img src=\"https://image.suhuishou.com/attached/image/20190615/20190615084800_32245.jpg\" alt=\"\" /><img src=\"https://image.suhuishou.com/attached/image/20190615/20190615084800_11061.jpg\" alt=\"\" /><img src=\"https://image.suhuishou.com/attached/image/20190615/20190615084800_41649.jpg\" alt=\"\" /><img src=\"https://image.suhuishou.com/attached/image/20190615/20190615084800_51297.jpg\" alt=\"\" /><img src=\"https://image.suhuishou.com/attached/image/20190615/20190615084800_71420.jpg\" alt=\"\" /><img src=\"https://image.suhuishou.com/attached/image/20190615/20190615084800_59251.jpg\" alt=\"\" /><img src=\"https://image.suhuishou.com/attached/image/20190615/20190615084800_72263.jpg\" alt=\"\" /><img src=\"https://image.suhuishou.com/attached/image/20190615/20190615084800_58182.jpg\" alt=\"\" /><img src=\"https://image.suhuishou.com/attached/image/20190615/20190615084801_83942.jpg\" alt=\"\" />\r\n</p>\r\n<p style=\"text-align:center;\">\r\n\t<img src=\"https://image.suhuishou.com/attached/image/20190615/20190615084846_80454.jpg\" alt=\"\" /><img src=\"https://image.suhuishou.com/attached/image/20190615/20190615084846_18488.jpg\" alt=\"\" /><img src=\"https://image.suhuishou.com/attached/image/20190615/20190615084846_77795.jpg\" alt=\"\" />\r\n</p>",
      "img": "https://image.suhuishou.com/attached/image/20190615/20190615083946_47241.png",
      "goods_number": 1,
      "bonus_price": 500,
      "brand_id": 11,
      "attr": [
        {
          "attr_id": 156,
          "attr_name": "\u9009\u62e9\u989c\u8272",
          "attr_value": [
            {
              "attr_value_id": 659494,
              "attr_price": 0,
              "attr_value_name": "\u7c89\u9edb\u91d1",
              "attr_value_key": false,
              "attr_value_pinyin": "",
              "attr_value_desc": "",
              "attr_value_img": ""
            },
            {
              "attr_value_id": 661461,
              "attr_price": 0,
              "attr_value_name": "\u96c0\u7fbd\u84dd",
              "attr_value_key": 19,
              "attr_value_pinyin": "",
              "attr_value_desc": "",
              "attr_value_img": ""
            }
          ]
        },
        {
          "attr_id": 157,
          "attr_name": "\u9009\u62e9\u7248\u672c",
          "attr_value": [
            {
              "attr_value_id": 659495,
              "attr_price": 0,
              "attr_value_name": "8GB+256GB",
              "attr_value_key": 6,
              "attr_value_pinyin": "",
              "attr_value_desc": "",
              "attr_value_img": ""
            }
          ]
        }
      ],
      "gallery": [
        "https://image.suhuishou.com/attached/image/20190615/20190615085027_80740.png",
        "https://image.suhuishou.com/attached/image/20190615/20190615085028_70194.png",
        "https://image.suhuishou.com/attached/image/20190615/20190615085028_55693.png"
      ]
    }
  ]
}
